<?xml version="1.0" encoding="utf-8"?>
<!-- Generator: Adobe Illustrator 22.0.1, SVG Export Plug-In . SVG Version: 6.00 Build 0)  -->
<svg version="1.1" id="Layer_1" xmlns="http://www.w3.org/2000/svg" xmlns:xlink="http://www.w3.org/1999/xlink" x="0px" y="0px"
	 viewBox="0 0 426.5 401.9" style="enable-background:new 0 0 426.5 401.9;" xml:space="preserve">
<style type="text/css">
	.st0{fill:#434343;}
</style>
<path class="st0" d="M200.6,183.5c0-12-0.1-53.5,0-64.9c0.1-8.4-0.4-16.9,0.8-25.1c2.7-19,17.1-31.3,36.4-31.5
	c22.4-0.2,44.7,0,67.1-0.1c3.2,0,6.3-0.6,9.3-1.8c4.4-1.9,5.7-6,5.7-10.6c0-8.4-0.1-16.8,0-25.2c0.1-8.7,6.5-14.4,14.7-13.3
	c5.2,0.7,10.3,5,10.4,10.1c0.3,11.8,1,23.8-0.5,35.5c-2.4,18.6-18,30.7-37.9,30.8c-21.8,0.1-43.7,0-65.5,0.1c-2.5-0.1-5,0.2-7.5,0.8
	c-4.5,1.2-7.5,5.3-7.4,9.9c-0.2,18.2-0.1,66.4-0.1,85.3h4.8c26.1,0,52.2,0.4,78.3-0.2c23.9-0.5,44.3,7.6,62.4,22.4
	c49.1,40.3,50.4,119.3,2.6,161.1c-43.5,38.1-108.2,30.5-142.9-17.2c-1.6-2.6-4.5-4-7.5-3.7c-6.8,0.2-13.6,0.2-20.4,0
	c-3.3-0.1-5.2,0.9-7.1,3.6c-17.6,24.3-41.3,38.7-71.2,41.1c-30.2,2.5-56-8-77.2-29.5C3.1,315.8,8.4,239,58.8,201.5
	c11.3-8.5,24.4-14.4,38.3-17.1c2.4-0.4,4.7-0.6,7.1-0.6c30.2-0.1,60.4-0.2,90.7-0.3H200.6z M211.4,208.7v0.3c-33,0-66,0.3-99-0.1
	c-14-0.2-26.1,4.2-37.2,12.1c-35.7,25.4-43.3,78.5-16,114.4c17.6,23.2,41.2,33.7,70.3,29c22.3-3.6,38.6-16.4,49.9-35.7
	c3.4-5.8,7.8-8.5,14.6-8.4c11,0.3,22.1,0.7,33.1-0.1s17.6,2.9,23.7,12.4c22.9,35.3,69.4,43.5,101.9,18.8
	c40.4-30.7,41.6-94.3,2.4-126.5c-11.1-9.2-23.6-15.9-38.3-16.1C281.7,208.4,246.6,208.7,211.4,208.7z"/>
<path class="st0" d="M102.5,275.1c0-3.1-0.1-5.6,0-8.1c0.3-7.8,5.9-13.4,13.1-13.2s12.2,5.8,12.3,13.5c0,2.4,0,4.8,0,7.8
	c2.9,0,5.4,0,8,0c7.6,0.1,13.3,5.4,13.4,12.5c0.1,7.3-5.5,12.8-13.2,13c-2.5,0.1-5,0-8.2,0c0,2.8,0,5.4,0,8
	c-0.2,7.7-5.3,13.1-12.5,13.3c-6.9,0.2-12.6-5.4-12.9-13c-0.1-2.6,0-5.3,0-8.4c-3,0-5.7,0-8.3,0c-7.4-0.2-12.8-5.4-12.9-12.4
	c-0.1-7.3,5.2-12.8,12.7-13C96.7,275,99.3,275.1,102.5,275.1z"/>
<path class="st0" d="M213.1,287.8c-3.6,0-7.2,0.1-10.8,0c-7-0.2-12.5-6.1-12.3-13.1c0.2-6.6,5.5-12,12.1-12.3
	c7.4-0.2,14.9-0.2,22.3,0c7,0.3,12.4,6.3,12.1,13.3c-0.3,6.6-5.6,11.9-12.3,12.1C220.6,287.9,216.8,287.8,213.1,287.8z"/>
<path class="st0" d="M277.2,275.1c7,0,12.7,5.7,12.8,12.7s-5.7,12.7-12.7,12.8c-7,0-12.7-5.7-12.8-12.7c0,0,0-0.1,0-0.1
	C264.6,280.8,270.2,275.2,277.2,275.1z"/>
<path class="st0" d="M298.7,322c-0.2-6.9,5.3-12.5,12.1-12.7c0.1,0,0.3,0,0.4,0c7-0.1,12.7,5.6,12.8,12.5c-0.1,7-5.7,12.7-12.7,12.8
	C304.3,334.6,298.7,329,298.7,322z"/>
<path class="st0" d="M311.5,266.4c-6.8,0.2-12.6-5.2-12.8-12c0-0.2,0-0.3,0-0.5c-0.2-6.9,5.3-12.7,12.3-12.9c0.1,0,0.1,0,0.2,0
	c7,0,12.7,5.6,12.9,12.6C324.1,260.6,318.4,266.3,311.5,266.4z"/>
<path class="st0" d="M358,287.5c0.2,7-5.3,12.8-12.2,13c-0.1,0-0.3,0-0.4,0c-7,0-12.7-5.6-12.8-12.7s5.6-12.7,12.7-12.8
	C352.2,275,357.9,280.6,358,287.5z"/>
</svg>
